Análisis de datos con Tidyverse
…
Recordar

De ahora en adelante para ilustrar la mayoría de los ejemplos, se utilizará el dataset data_bol que hemos definido anteriormente, el cual contiene las observaciones de “Bolivia” del año 1981 a 2023.

Seleccionar columnas con select()

El verbo select() se utiliza para seleccionar columnas en un dataframe. Permite trabajar con un subconjunto de las columnas disponibles.

Por ejemplo, si se desea seleccionar las columnas Pais, Año y GDPpc_usd del dataset data_bol, se puede hacer de la siguiente manera:

data_bol |> 
  select(Pais, Año, GDPpc_usd)

# A tibble: 43 × 3
   Pais      Año GDPpc_usd
   <chr>   <dbl>     <dbl>
 1 Bolivia  1981      616.
 2 Bolivia  1982      669.
 3 Bolivia  1983      620.
 4 Bolivia  1984      631.
 5 Bolivia  1985      669.
 6 Bolivia  1986      641.
 7 Bolivia  1987      684.
 8 Bolivia  1988      712.
 9 Bolivia  1989      716.
10 Bolivia  1990      723.
# ℹ 33 more rows

El verbo select() también permite seleccionar columnas por rango, por ejemplo, si se desea seleccionar las columnas de Año a Inflacion, se puede hacer de la siguiente manera:

data_bol |> 
  select(Año:Inflacion)

# A tibble: 43 × 3
     Año Deuda Inflacion
   <dbl> <dbl>     <dbl>
 1  1981  112.      32.1
 2  1982  144.     124. 
 3  1983  151.     276. 
 4  1984  160.    1281. 
 5  1985  192.   11750. 
 6  1986  140.     273. 
 7  1987  136.      14.6
 8  1988  118.      16  
 9  1989  100.      15.2
10  1990  105.      17.1
# ℹ 33 more rows

También se pueden excluir columnas específicas utilizando el operador -. Por ejemplo, si se desea excluir la columna GDPpc_usd y ISO_Code, se puede hacer de la siguiente manera:

data_bol |> 
  select(-GDPpc_usd, -ISO_Code)

# A tibble: 43 × 8
   Pais    Continent   Año Deuda Inflacion Deficit_Fiscal rgrowth GDPpc_ppp
   <chr>   <chr>     <dbl> <dbl>     <dbl>          <dbl>   <dbl>     <dbl>
 1 Bolivia Americas   1981  112.      32.1           -9.6     0.3     2465 
 2 Bolivia Americas   1982  144.     124.           -15.9    -3.9     2463.
 3 Bolivia Americas   1983  151.     276.           -19.8    -4       2406.
 4 Bolivia Americas   1984  160.    1281.           -25.4    -0.2     2437.
 5 Bolivia Americas   1985  192.   11750.            -9.8    -1.7     2421.
 6 Bolivia Americas   1986  140.     273.            -2.7    -2.6     2357.
 7 Bolivia Americas   1987  136.      14.6           -7.7     2.5     2424.
 8 Bolivia Americas   1988  118.      16             -6.5     2.9     2530.
 9 Bolivia Americas   1989  100.      15.2           -5.5     3.8     2673.
10 Bolivia Americas   1990  105.      17.1           -4.4     4.6     2842.
# ℹ 33 more rows
…
where()
Selecciona columnas según una condición lógica

Estos “helpers” también forman parte de dplyr y permiten una selección más dinámica de columnas.

Así, supongamos que se desea:

Seleccionar la columna Año y todas las columnas que comienzan con “GDP”:

data_bol |> 
  select(Año, starts_with("GDP"))

# A tibble: 43 × 3
     Año GDPpc_usd GDPpc_ppp
   <dbl>     <dbl>     <dbl>
 1  1981      616.     2465 
 2  1982      669.     2463.
 3  1983      620.     2406.
 4  1984      631.     2437.
 5  1985      669.     2421.
 6  1986      641.     2357.
 7  1987      684.     2424.
 8  1988      712.     2530.
 9  1989      716.     2673.
10  1990      723.     2842.
# ℹ 33 more rows

Seleccionar solo aquellas columnas que son de texto:

data_bol |> 
  select(where(is.character))

# A tibble: 43 × 3
   Pais    ISO_Code Continent
   <chr>   <chr>    <chr>    
 1 Bolivia BOL      Americas 
 2 Bolivia BOL      Americas 
 3 Bolivia BOL      Americas 
 4 Bolivia BOL      Americas 
 5 Bolivia BOL      Americas 
 6 Bolivia BOL      Americas 
 7 Bolivia BOL      Americas 
 8 Bolivia BOL      Americas 
 9 Bolivia BOL      Americas 
10 Bolivia BOL      Americas 
# ℹ 33 more rows

Crear y modificar variables con mutate()

Un verbo clave de dplyr es mutate(), que se utiliza para crear nuevas variables o modificar las existentes en un dataframe.

Por ejemplo, si se desea crear una nueva variable llamada GDPpc_milesUSD que sea el PIB per cápita en miles de dólares:

data_tmp <- data_bol |> 
  mutate(GDPpc_milesUSD = GDPpc_usd / 1000)

data_tmp |> 
  select(Pais, Año, GDPpc_usd, GDPpc_milesUSD)

# A tibble: 43 × 4
   Pais      Año GDPpc_usd GDPpc_milesUSD
   <chr>   <dbl>     <dbl>          <dbl>
 1 Bolivia  1981      616.          0.616
 2 Bolivia  1982      669.          0.669
 3 Bolivia  1983      620.          0.620
 4 Bolivia  1984      631.          0.631
 5 Bolivia  1985      669.          0.669
 6 Bolivia  1986      641.          0.641
 7 Bolivia  1987      684.          0.684
 8 Bolivia  1988      712.          0.712
 9 Bolivia  1989      716.          0.716
10 Bolivia  1990      723.          0.723
# ℹ 33 more rows

Otro uso común de mutate() es para crear variables de forma condicional. Es decir, que se tome un valor si se cumple una condición y otro valor si no se cumple. Para esto, se suele utilizar la función if_else, también parte de dplyr.

Por ejemplo, supongamos que se desea crear una nueva variable llamada cuentas_en que tome el valor de deficit si la variable Deficit_Fiscal es menor a 0 y superavit si es mayor o igual a 0:

data_tmp <- data_bol |> 
  mutate(cuentas_en = if_else(Deficit_Fiscal < 0, "deficit", "superavit"))

data_tmp |>
  select(Pais, Año, Deficit_Fiscal, cuentas_en)

# A tibble: 43 × 4
   Pais      Año Deficit_Fiscal cuentas_en
   <chr>   <dbl>          <dbl> <chr>     
 1 Bolivia  1981           -9.6 deficit   
 2 Bolivia  1982          -15.9 deficit   
 3 Bolivia  1983          -19.8 deficit   
 4 Bolivia  1984          -25.4 deficit   
 5 Bolivia  1985           -9.8 deficit   
 6 Bolivia  1986           -2.7 deficit   
 7 Bolivia  1987           -7.7 deficit   
 8 Bolivia  1988           -6.5 deficit   
 9 Bolivia  1989           -5.5 deficit   
10 Bolivia  1990           -4.4 deficit   
# ℹ 33 more rows

Finalmente, muchas veces se quieren crear nuevas categorías en base a valores numéricos. Por ejemplo, si se desea crear una nueva variable llamada Inflacion_Categoria que tome el valor de baja si la inflación es menor a 5%, media si está entre 5% y 10%, y alta si es mayor a 10%:

data_tmp <- data_bol |> 
  mutate(Inflacion_Categoria = case_when(
    Inflacion < 5 ~ "Baja",
    Inflacion >= 5 & Inflacion < 10 ~ "Media",
    Inflacion >= 10 & Inflacion < 50 ~ "Alta",
    Inflacion >= 50 ~ "Muy alta"
  ))

data_tmp |>
  select(Pais, Año, Inflacion, Inflacion_Categoria)

# A tibble: 43 × 4
   Pais      Año Inflacion Inflacion_Categoria
   <chr>   <dbl>     <dbl> <chr>              
 1 Bolivia  1981      32.1 Alta               
 2 Bolivia  1982     124.  Muy alta           
 3 Bolivia  1983     276.  Muy alta           
 4 Bolivia  1984    1281.  Muy alta           
 5 Bolivia  1985   11750.  Muy alta           
 6 Bolivia  1986     273.  Muy alta           
 7 Bolivia  1987      14.6 Alta               
 8 Bolivia  1988      16   Alta               
 9 Bolivia  1989      15.2 Alta               
10 Bolivia  1990      17.1 Alta               
# ℹ 33 more rows
Combinar verbos con pipe

Anteriormente, se indicó que era posible utilizar el operador %>% o |> para encadenar operaciones. Esto es especialmente útil cuando se combinan varios verbos de dplyr.

 Por ejemplo, en el caso anterior, se creó una nueva variable cuentas_en para indicar si el país tenía un déficit o superávit fiscal. El resultado fue un nuevo dataframe data_tmp que contenía la nueva variable. Sobre este se aplico el vebo select() para mostrar solo las columnas de interés.

Aunque funcionó, no es la manera más eficiente de hacerlo. En lugar de crear un dataframe intermedio, se puede encadenar las operaciones directamente utilizando el operador %>% o |>.

Por ejemplo, supongamos que se desea crear la variable cuentas_en y luego seleccionar las columnas Pais, Año, Deficit_Fiscal y cuentas_en en un solo paso:

data_bol |> 
  mutate(cuentas_en = if_else(Deficit_Fiscal < 0, "deficit", "superavit")) |>
  select(Pais, Año, Deficit_Fiscal, cuentas_en)

# A tibble: 43 × 4
   Pais      Año Deficit_Fiscal cuentas_en
   <chr>   <dbl>          <dbl> <chr>     
 1 Bolivia  1981           -9.6 deficit   
 2 Bolivia  1982          -15.9 deficit   
 3 Bolivia  1983          -19.8 deficit   
 4 Bolivia  1984          -25.4 deficit   
 5 Bolivia  1985           -9.8 deficit   
 6 Bolivia  1986           -2.7 deficit   
 7 Bolivia  1987           -7.7 deficit   
 8 Bolivia  1988           -6.5 deficit   
 9 Bolivia  1989           -5.5 deficit   
10 Bolivia  1990           -4.4 deficit   
# ℹ 33 more rows
…
Recordar

De ahora en adelante, vamos a utilizar el operador |> para encadenar operaciones de dplyr, aunque también se puede utilizar el operador %>%.

Ordenar datos con arrange()

Otro verbo que suele ser muy útil es arrange(), que se utiliza para ordenar las observaciones de un dataframe según una o más variables. Por ejemplo,

Ordenar el dataset de acuerdo a los años de mayor a menor inflación:

data_bol |> 
  select(Pais, Año, Inflacion) |>
  arrange(desc(Inflacion))

# A tibble: 43 × 3
   Pais      Año Inflacion
   <chr>   <dbl>     <dbl>
 1 Bolivia  1985   11750. 
 2 Bolivia  1984    1281. 
 3 Bolivia  1983     276. 
 4 Bolivia  1986     273. 
 5 Bolivia  1982     124. 
 6 Bolivia  1981      32.1
 7 Bolivia  1991      21.4
 8 Bolivia  1990      17.1
 9 Bolivia  1988      16  
10 Bolivia  1989      15.2
# ℹ 33 more rows

Ordenar de acuerdo a los años de menor a mayor inflación:

data_bol |> 
  select(Pais, Año, Inflacion) |>
  arrange(Inflacion)

# A tibble: 43 × 3
   Pais      Año Inflacion
   <chr>   <dbl>     <dbl>
 1 Bolivia  2021       0.7
 2 Bolivia  2002       0.9
 3 Bolivia  2020       0.9
 4 Bolivia  2001       1.6
 5 Bolivia  2022       1.7
 6 Bolivia  2019       1.8
 7 Bolivia  1999       2.2
 8 Bolivia  2018       2.3
 9 Bolivia  2004       2.5
10 Bolivia  2010       2.5
# ℹ 33 more rows
…
